logicdumps/sender.vcd
$timescale 1 ns $end
$scope module top $end
$var wire 1 ! MOSI $end
$var wire 1 " MISO $end
$var wire 1 # CLOCK $end
$var wire 1 $ ENABLE $end
$var wire 1 % nIRQ $end
$upscope $end
$enddefinitions $end
#10223829166
1!
0"
1#
0$
0%
#11056581833
0!
0#
#11056581916
1!
#11056583666
1$
#11056583750
1"
#11057162500
0$
#11057162583
0"
#11057164750
0!
#11057165250
1#
#11057165750
0#
#11057166250
1#
#11057166750
0#
#11057167250
1#
#11057167750
0#
#11057168250
1#
#11057168750
0#
#11057168833
1"
#11057169250
1#
#11057169750
0#
#11057170250
1#
#11057170750
0#
#11057170833
0"
#11057171250
1#
#11057171750
0#
#11057172250
1#
#11057172750
1!
0#
#11057173500
0!
#11057174000
1#
#11057174500
0#
#11057175000
1#
#11057175500
0#
#11057176000
1#
#11057176500
0#
#11057177000
1#
#11057177500
0#
#11057178000
1#
#11057178500
0#
#11057179000
1#
#11057179500
0#
#11057180000
1#
#11057180500
0#
#11057181000
1#
#11057181500
1!
0#
1%
#11057189333
1$
#11057189416
1"
#11057213000
0"
0$
#11057215750
1#
#11057216250
0!
0#
#11057216750
1#
#11057217250
0#
#11057217750
1#
#11057218250
0#
#11057218750
1#
#11057219250
0#
#11057219750
1#
#11057220250
0#
#11057220750
1#
#11057221250
1!
0#
#11057221750
1#
#11057222250
0!
0#
#11057222750
1#
#11057223250
1!
0#
#11057223916
0!
#11057224416
1#
#11057224916
0#
#11057225416
1#
#11057225916
0#
#11057226416
1#
#11057226916
0#
#11057227416
1#
#11057227916
0#
#11057228416
1#
#11057228916
1!
0#
#11057229416
1#
#11057229916
0!
0#
#11057230416
1#
#11057230916
1!
0#
#11057231416
1#
#11057231916
0#
#11057237166
1"
1$
#11057250416
0"
0$
#11057253166
1#
#11057253666
0!
0#
#11057254166
1#
#11057254666
0#
#11057255166
1#
#11057255666
0#
#11057256166
1#
#11057256666
0#
#11057257166
1#
#11057257666
0#
#11057258166
1#
#11057258666
0#
#11057259166
1#
#11057259666
0#
#11057260166
1#
#11057260666
1!
0#
#11057261833
1#
#11057262333
0#
#11057262833
1#
#11057263333
0!
0#
#11057263833
1#
#11057264333
1!
0#
#11057264833
1#
#11057265333
0!
0#
#11057265833
1#
#11057266333
1!
0#
#11057266833
1#
#11057267333
0#
#11057267833
1#
#11057268333
0#
#11057268833
1#
#11057269333
0#
#11057284250
1"
1$
#11057339500
0$
#11057339583
0"
#11057342250
1#
#11057342833
0!
0#
#11057343250
1#
#11057343750
1!
#11057343833
0#
#11057344250
1#
#11057344833
0!
0#
#11057345250
1#
#11057345833
0#
#11057346250
1#
#11057346750
1!
#11057346833
0#
#11057347250
1#
#11057347833
0!
0#
#11057348250
1#
#11057348833
0#
#11057349250
1#
#11057349750
1!
#11057349833
0#
#11057351000
1#
#11057351500
0!
0#
#11057352000
1#
#11057352500
1!
0#
#11057353000
1#
#11057353500
0#
#11057354000
1#
#11057354500
0!
0#
#11057355000
1#
#11057355500
0#
#11057356000
1#
#11057356500
0#
#11057357000
1#
#11057357500
0#
#11057358000
1#
#11057358500
1!
0#
#11057373333
1$
#11057373416
1"
#11057471333
0"
0$
#11057474083
1#
#11057474583
0#
#11057475083
1#
#11057475583
0!
0#
#11057476083
1#
#11057476583
0#
#11057477083
1#
#11057477583
0#
#11057478083
1#
#11057478583
1!
0#
#11057479083
1#
#11057479583
0#
#11057480083
1#
#11057480583
0!
0#
#11057481083
1#
#11057481583
1!
0#
#11057482250
0!
#11057482750
1#
#11057483250
0#
#11057483750
1#
#11057484250
0#
#11057484750
1#
#11057485250
0#
#11057485750
1#
#11057486250
1!
0#
#11057486750
1#
#11057487250
0!
0#
#11057487750
1#
#11057488250
0#
#11057488750
1#
#11057489250
0#
#11057489750
1#
#11057490250
1!
0#
#11057495500
1"
1$
#11057508916
0$
#11057509000
0"
#11057511666
1#
#11057512166
0!
0#
#11057512666
1#
#11057513166
0#
#11057513666
1#
#11057514166
1!
0#
#11057514666
1#
#11057515166
0!
0#
#11057515666
1#
#11057516166
1!
0#
#11057516666
1#
#11057517166
0!
0#
#11057517666
1#
#11057518166
0#
#11057518666
1#
#11057519166
1!
0#
#11057520333
1#
#11057520833
0!
0#
#11057521333
1#
#11057521833
1!
0#
#11057522333
1#
#11057522833
0!
0#
#11057523333
1#
#11057523833
0#
#11057524333
1#
#11057524833
0#
#11057525333
1#
#11057525833
1!
0#
#11057526333
1#
#11057526833
0!
0#
#11057527333
1#
#11057527833
1!
0#
#11057542750
1"
1$
#11057556333
0"
0$
#11057559083
1#
#11057559583
0#
#11057560083
1#
#11057560583
0!
0#
#11057561083
1#
#11057561583
0#
#11057562083
1#
#11057562583
0#
#11057563083
1#
#11057563583
0#
#11057564083
1#
#11057564583
1!
0#
#11057565083
1#
#11057565583
0!
0#
#11057566083
1#
#11057566583
1!
0#
#11057567750
1#
#11057568250
0!
0#
#11057568750
1#
#11057569250
1!
0#
#11057569750
1#
#11057570250
0!
0#
#11057570750
1#
#11057571250
1!
0#
#11057571750
1#
#11057572250
0#
#11057572750
1#
#11057573250
0!
0#
#11057573750
1#
#11057574250
0#
#11057574750
1#
#11057575250
1!
0#
#11057580500
1"
1$
#11057594916
0$
#11057595000
0"
#11057597666
1#
#11057598166
0#
#11057598666
1#
#11057599166
0!
0#
#11057599666
1#
#11057600166
0#
#11057600666
1#
#11057601166
1!
0#
#11057601666
1#
#11057602166
0!
0#
#11057602666
1#
#11057603166
1!
0#
#11057603666
1#
#11057604166
0!
0#
#11057604666
1#
#11057605166
1!
0#
#11057606333
1#
#11057606833
0!
0#
#11057607333
1#
#11057607833
0#
#11057608333
1#
#11057608833
0#
#11057609333
1#
#11057609833
1!
0#
#11057610333
1#
#11057610833
0#
#11057611333
1#
#11057611833
0!
0#
#11057612333
1#
#11057612833
1!
0#
#11057613333
1#
#11057613833
0#
#11057628750
1"
1$
#11057641083
0"
0$
#11057643833
1#
#11057644333
0#
#11057644833
1#
#11057645333
0!
0#
#11057645833
1#
#11057646333
0#
#11057646833
1#
#11057647333
1!
0#
#11057647833
1#
#11057648333
0#
#11057648833
1#
#11057649333
0#
#11057649833
1#
#11057650333
0!
0#
#11057650833
1#
#11057651333
1!
0#
#11057652000
0!
#11057652500
1#
#11057653000
0#
#11057653500
1#
#11057654000
1!
0#
#11057654500
1#
#11057655000
0!
0#
#11057655500
1#
#11057656000
1!
0#
#11057656500
1#
#11057657000
0#
#11057657500
1#
#11057658000
0!
0#
#11057658500
1#
#11057659000
1!
0#
#11057659500
1#
#11057660000
0#
#11057665250
1"
1$
#11057678500
0"
0$
#11057681250
1#
#11057681750
0#
#11057682250
1#
#11057682750
0!
0#
#11057683250
1#
#11057683750
0#
#11057684250
1#
#11057684750
0#
#11057685250
1#
#11057685750
1!
0#
#11057686250
1#
#11057686750
0!
0#
#11057687250
1#
#11057687750
0#
#11057688250
1#
#11057688750
1!
0#
#11057689916
1#
#11057690416
0#
#11057690916
1#
#11057691416
0!
0#
#11057691916
1#
#11057692416
0#
#11057692916
1#
#11057693416
0#
#11057693916
1#
#11057694416
1!
0#
#11057694916
1#
#11057695416
0#
#11057695916
1#
#11057696416
0#
#11057696916
1#
#11057697416
0#
#11057712333
1"
1$
#11057725916
0$
#11057726000
0"
#11057728666
1#
#11057729166
0!
0#
#11057729666
1#
#11057730166
0#
#11057730666
1#
#11057731166
1!
0#
#11057731666
1#
#11057732166
0#
#11057732666
1#
#11057733166
0!
0#
#11057733666
1#
#11057734166
0#
#11057734666
1#
#11057735166
0#
#11057735666
1#
#11057736166
1!
0#
#11057736833
0!
#11057737333
1#
#11057737833
1!
0#
#11057738333
1#
#11057738833
0!
0#
#11057739333
1#
#11057739833
1!
0#
#11057740333
1#
#11057740833
0!
0#
#11057741333
1#
#11057741833
0#
#11057742333
1#
#11057742833
0#
#11057743333
1#
#11057743833
0#
#11057744333
1#
#11057744833
1!
0#
#11057750083
1$
#11057750166
1"
#11057763750
0"
0$
#11057766500
1#
#11057767000
0#
#11057767500
1#
#11057768000
0!
0#
#11057768500
1#
#11057769000
0#
#11057769500
1#
#11057770000
1!
0#
#11057770500
1#
#11057771000
0#
#11057771500
1#
#11057772000
0!
0#
#11057772500
1#
#11057773000
0#
#11057773500
1#
#11057774000
1!
0#
#11057774666
0!
#11057775166
1#
#11057775666
1!
0#
#11057776166
1#
#11057776666
0#
#11057777166
1#
#11057777666
0#
#11057778166
1#
#11057778666
0!
0#
#11057779166
1#
#11057779666
1!
0#
#11057780166
1#
#11057780666
0#
#11057781166
1#
#11057781666
0!
0#
#11057782166
1#
#11057782666
1!
0#
#11057797583
1"
1$
#11057810833
0$
#11057810916
0"
#11057813583
1#
#11057814083
0#
#11057814583
1#
#11057815083
0#
#11057815583
1#
#11057816166
0!
0#
#11057816583
1#
#11057817083
0#
#11057817583
1#
#11057818083
0#
#11057818583
1#
#11057819083
0#
#11057819583
1#
#11057820083
0#
#11057820583
1#
#11057821083
1!
0#
#11057821833
0!
#11057822333
1#
#11057822833
0#
#11057823333
1#
#11057823833
0#
#11057824333
1#
#11057824833
0#
#11057825333
1#
#11057825833
0#
#11057826333
1#
#11057826833
0#
#11057827333
1#
#11057827833
0#
#11057828333
1#
#11057828833
0#
#11057829333
1#
#11057829833
1!
0#
#11057835083
1"
1$
#11057848166
0$
#11057848250
0"
#11057850916
1#
#11057851416
0#
#11057851916
1#
#11057852416
0!
0#
#11057852916
1#
#11057853416
0#
#11057853916
1#
#11057854416
1!
0#
#11057854916
1#
#11057855416
0!
0#
#11057855916
1#
#11057856416
0#
#11057856916
1#
#11057857416
0#
#11057857916
1#
#11057858416
1!
0#
#11057859166
0!
#11057859583
1#
#11057860166
0#
#11057860583
1#
#11057861166
0#
#11057861583
1#
#11057862166
0#
#11057862583
1#
#11057863083
1!
#11057863166
0#
#11057863583
1#
#11057864166
0#
#11057864583
1#
#11057865166
0#
#11057865583
1#
#11057866166
0!
0#
#11057866583
1#
#11057867083
1!
#11057867166
0#
#11057882000
1"
1$
#11057895583
0$
#11057895666
0"
#11057898333
1#
#11057898916
0#
#11057899333
1#
#11057899916
0!
0#
#11057900333
1#
#11057900916
0#
#11057901333
1#
#11057901916
0#
#11057902333
1#
#11057902916
0#
#11057903333
1#
#11057903916
0#
#11057904333
1#
#11057904916
0#
#11057905333
1#
#11057905916
1!
0#
#11057906583
0!
#11057907083
1#
#11057907583
1!
0#
#11057908083
1#
#11057908583
0!
0#
#11057909083
1#
#11057909583
0#
#11057910083
1#
#11057910583
1!
0#
#11057911083
1#
#11057911583
0!
0#
#11057912083
1#
#11057912583
0#
#11057913083
1#
#11057913583
1!
0#
#11057914083
1#
#11057914583
0#
#11057919833
1"
1$
#12608171250
0"
0$
#12608174000
1#
#12608174500
0!
0#
#12608175000
1#
#12608175500
0#
#12608176000
1#
#12608176500
0#
#12608177000
1#
#12608177500
0#
#12608178000
1#
#12608178500
0#
#12608179000
1#
#12608179500
1!
0#
#12608180000
1#
#12608180500
0!
0#
#12608181000
1#
#12608181500
1!
0#
#12608182166
0!
#12608182666
1#
#12608183166
0#
#12608183666
1#
#12608184166
0#
#12608184666
1#
#12608185166
0#
#12608185666
1#
#12608186166
0#
#12608186666
1#
#12608187166
1!
0#
#12608187666
1#
#12608188166
0!
0#
#12608188666
1#
#12608189166
1!
0#
#12608189666
1#
#12608190166
0#
#12608195416
1$
#12608195500
1"
#13608702500
0"
0$
#13608705250
1#
#13608705750
0!
0#
#13608706250
1#
#13608706750
0#
#13608707250
1#
#13608707750
0#
#13608708250
1#
#13608708750
0#
#13608709250
1#
#13608709750
0#
#13608710250
1#
#13608710750
1!
0#
#13608711250
1#
#13608711750
0!
0#
#13608712250
1#
#13608712750
1!
0#
#13608713416
0!
#13608713916
1#
#13608714416
1!
0#
#13608714916
1#
#13608715416
0#
#13608715916
1#
#13608716416
0#
#13608716916
1#
#13608717416
0#
#13608717916
1#
#13608718416
0#
#13608718916
1#
#13608719416
0!
0#
#13608719916
1#
#13608720416
1!
0#
#13608720916
1#
#13608721416
0#
#13608726666
1$
#13608726750
1"
#13610994666
0%
#14609101916
0$
#14609104166
0!
#14609104666
1#
#14609105166
0"
0#
#14609105666
1#
#14609106166
1"
0#
#14609106666
1#
#14609107166
0"
0#
#14609107666
1#
#14609108166
0#
#14609108666
1#
#14609109166
0#
#14609109666
1#
#14609110166
0#
#14609110666
1#
#14609111166
1"
0#
#14609111666
1#
#14609112166
1!
0"
0#
#14609112833
0!
#14609113333
1#
#14609113833
0#
#14609114333
1#
#14609114833
0#
#14609115333
1#
#14609115833
0#
#14609116333
1#
#14609116833
0#
#14609117333
1#
#14609117833
0#
#14609118333
1#
#14609118833
0#
#14609119333
1#
#14609119833
0#
#14609120333
1#
#14609120833
1!
0#
#14609126083
1"
1$
#14609146416
0$
#14609149166
1#
#14609149666
0!
0#
#14609150166
1#
#14609150666
1!
0#
#14609151166
1#
#14609151666
0#
#14609152166
1#
#14609152666
0#
#14609153166
1#
#14609153666
0!
0#
#14609154166
1#
#14609154666
0#
#14609155166
1#
#14609155666
0#
#14609156166
1#
#14609156666
1!
0#
#14609157833
1#
#14609158333
0!
0#
#14609158833
1#
#14609159333
1!
0#
#14609159833
1#
#14609160333
0!
0#
#14609160833
1#
#14609161333
1!
0#
#14609161833
1#
#14609162333
0!
0#
#14609162833
1#
#14609163333
1!
0#
#14609163833
1#
#14609164333
0!
0#
#14609164833
1#
1%
#14609164916
0"
#14609165333
1!
0#
#14609172666
1$
#14609172750
1"
#14609185583
0$
#14609185666
0"
#14609187833
0!
#14609188333
1#
#14609188833
0#
#14609189333
1#
#14609189833
0#
#14609190333
1#
#14609190833
0#
#14609191333
1#
#14609191833
0#
#14609192333
1#
#14609192833
0#
#14609193333
1#
#14609193833
0#
#14609194333
1#
#14609194833
1"
0#
#14609195333
1#
#14609195833
1!
0#
#14609195916
0"
#14609196500
0!
#14609197000
1#
#14609197500
0#
#14609198000
1#
#14609198500
0#
#14609199000
1#
#14609199500
0#
#14609200000
1#
#14609200500
0#
#14609201000
1#
#14609201500
0#
#14609202000
1#
#14609202500
0#
#14609203000
1#
#14609203500
0#
#14609204000
1#
#14609204500
1!
0#
#14609209750
1$
#14609209833
1"
#14609223833
0$
#14609223916
0"
#14609226083
0!
#14609226583
1#
#14609227083
0#
#14609227583
1#
#14609228083
0#
#14609228583
1#
#14609229083
0#
#14609229583
1#
#14609230083
0#
#14609230583
1#
#14609231083
0#
#14609231583
1#
#14609232083
0#
#14609232583
1#
#14609233083
1"
0#
#14609233583
1#
#14609234083
1!
0#
#14609234166
0"
#14609234750
0!
#14609235250
1#
#14609235750
0#
#14609236250
1#
#14609236750
0#
#14609237250
1#
#14609237750
0#
#14609238250
1#
#14609238750
0#
#14609239250
1#
#14609239750
0#
#14609240250
1#
#14609240750
0#
#14609241250
1#
#14609241750
0#
#14609242250
1#
#14609242750
1!
0#
#14609248000
1$
#14609248083
1"
#14609262083
0$
#14609262166
0"
#14609264333
0!
#14609264833
1#
#14609265333
0#
#14609265833
1#
#14609266333
0#
#14609266833
1#
#14609267333
0#
#14609267833
1#
#14609268333
0#
#14609268833
1#
#14609269333
0#
#14609269833
1#
#14609270333
0#
#14609270833
1#
#14609271333
1"
0#
#14609271833
1#
#14609272333
1!
0#
#14609272416
0"
#14609273000
0!
#14609273500
1#
#14609274000
0#
#14609274500
1#
#14609275000
0#
#14609275500
1#
#14609276000
0#
#14609276500
1#
#14609277000
0#
#14609277500
1#
#14609278000
0#
#14609278500
1#
#14609279000
0#
#14609279500
1#
#14609280000
0#
#14609280500
1#
#14609281000
1!
0#
#14609286250
1$
#14609286333
1"
#14609300333
0$
#14609300416
0"
#14609302583
0!
#14609303083
1#
#14609303583
0#
#14609304083
1#
#14609304583
0#
#14609305083
1#
#14609305583
0#
#14609306083
1#
#14609306583
0#
#14609307083
1#
#14609307583
0#
#14609308083
1#
#14609308583
0#
#14609309083
1#
#14609309583
1"
0#
#14609310083
1#
#14609310583
1!
0#
#14609310666
0"
#14609311250
0!
#14609311750
1#
#14609312250
0#
#14609312750
1#
#14609313250
0#
#14609313750
1#
#14609314250
0#
#14609314750
1#
#14609315250
0#
#14609315750
1#
#14609316250
0#
#14609316750
1#
#14609317250
0#
#14609317750
1#
#14609318250
0#
#14609318750
1#
#14609319250
1!
0#
#14609324500
1$
#14609324583
1"
#14609338583
0$
#14609338666
0"
#14609340833
0!
#14609341333
1#
#14609341833
0#
#14609342333
1#
#14609342833
0#
#14609343333
1#
#14609343833
0#
#14609344333
1#
#14609344833
0#
#14609345333
1#
#14609345833
0#
#14609346333
1#
#14609346833
0#
#14609347333
1#
#14609347833
1"
0#
#14609348333
1#
#14609348833
1!
0#
#14609348916
0"
#14609349500
0!
#14609350000
1#
#14609350500
0#
#14609351000
1#
#14609351500
0#
#14609352000
1#
#14609352500
0#
#14609353000
1#
#14609353500
0#
#14609354000
1#
#14609354500
0#
#14609355000
1#
#14609355500
0#
#14609356000
1#
#14609356500
0#
#14609357000
1#
#14609357500
1!
0#
#14609362750
1$
#14609362833
1"
#14609369250
0%
#14609380000
0$
#14609382250
0!
#14609382750
1#
#14609383250
0"
0#
#14609383750
1#
#14609384250
0#
#14609384750
1#
#14609385250
0#
#14609385750
1#
#14609386250
0#
#14609386750
1#
#14609387250
0#
#14609387750
1#
#14609388250
0#
#14609388750
1#
#14609389250
1"
0#
#14609389750
1#
#14609390250
1!
0"
0#
#14609390916
0!
#14609391416
1#
#14609391916
0#
#14609392416
1#
#14609392916
0#
#14609393416
1#
#14609393916
0#
#14609394416
1#
#14609394916
0#
#14609395416
1#
#14609395916
0#
#14609396416
1#
#14609396916
0#
#14609397416
1#
#14609397916
0#
#14609398416
1#
#14609398916
1!
0#
#14609404166
1"
1$
#14609424500
0$
#14609427250
1#
#14609427750
0!
0#
#14609428250
1#
#14609428750
1!
0#
#14609429250
1#
#14609429750
0#
#14609430250
1#
#14609430750
0#
#14609431250
1#
#14609431750
0!
0#
#14609432250
1#
#14609432750
0#
#14609433250
1#
#14609433750
0#
#14609434250
1#
#14609434750
1!
0#
#14609435916
1#
#14609436416
0!
0#
#14609436916
1#
#14609437416
1!
0#
#14609437916
1#
#14609438416
0!
0#
#14609438916
1#
#14609439416
1!
0#
#14609439916
1#
#14609440416
0!
0#
#14609440916
1#
#14609441416
1!
0#
#14609441916
1#
#14609442416
0!
0#
#14609442916
1#
1%
#14609443000
0"
#14609443416
1!
0#
#14609450750
1$
#14609450833
1"
#14609463666
0"
0$
#14609465916
0!
#14609466416
1#
#14609466916
0#
#14609467416
1#
#14609467916
0#
#14609468416
1#
#14609468916
0#
#14609469416
1#
#14609469916
0#
#14609470416
1#
#14609470916
0#
#14609471416
1#
#14609471916
0#
#14609472416
1#
#14609472916
1"
0#
#14609473416
1#
#14609473916
1!
0"
0#
#14609474583
0!
#14609475083
1#
#14609475583
0#
#14609476083
1#
#14609476583
0#
#14609477083
1#
#14609477583
0#
#14609478083
1#
#14609478583
0#
#14609479083
1#
#14609479583
0#
#14609480083
1#
#14609480583
0#
#14609481083
1#
#14609481583
0#
#14609482083
1#
#14609482583
1!
0#
#14609487833
1$
#14609487916
1"
#14609501916
0"
0$
#14609504166
0!
#14609504666
1#
#14609505166
0#
#14609505666
1#
#14609506166
0#
#14609506666
1#
#14609507166
0#
#14609507666
1#
#14609508166
0#
#14609508666
1#
#14609509166
0#
#14609509666
1#
#14609510166
0#
#14609510666
1#
#14609511166
1"
0#
#14609511666
1#
#14609512166
1!
0"
0#
#14609512833
0!
#14609513333
1#
#14609513833
0#
#14609514333
1#
#14609514833
0#
#14609515333
1#
#14609515833
0#
#14609516333
1#
#14609516833
0#
#14609517333
1#
#14609517833
0#
#14609518333
1#
#14609518833
0#
#14609519333
1#
#14609519833
0#
#14609520333
1#
#14609520833
1!
0#
#14609526083
1$
#14609526166
1"
#14609540166
0"
0$
#14609542416
0!
#14609542916
1#
#14609543416
0#
#14609543916
1#
#14609544416
0#
#14609544916
1#
#14609545416
0#
#14609545916
1#
#14609546416
0#
#14609546916
1#
#14609547416
0#
#14609547916
1#
#14609548416
0#
#14609548916
1#
#14609549416
1"
0#
#14609549916
1#
#14609550416
1!
0#
#14609550500
0"
#14609551083
0!
#14609551583
1#
#14609552083
0#
#14609552583
1#
#14609553083
0#
#14609553583
1#
#14609554083
0#
#14609554583
1#
#14609555083
0#
#14609555583
1#
#14609556083
0#
#14609556583
1#
#14609557083
0#
#14609557583
1#
#14609558083
0#
#14609558583
1#
#14609559083
1!
0#
#14609564333
1$
#14609564416
1"
#14609578000
0%
#14609581500
0$
#14609583750
0!
#14609584250
1#
#14609584750
0#
#14609584833
0"
#14609585250
1#
#14609585750
0#
#14609586250
1#
#14609586750
0#
#14609587250
1#
#14609587750
0#
#14609588250
1#
#14609588750
0#
#14609589250
1#
#14609589750
0#
#14609590250
1#
#14609590750
0#
#14609590833
1"
#14609591250
1#
#14609591750
1!
0#
#14609591833
0"
#14609592500
0!
#14609593000
1#
#14609593500
0#
#14609594000
1#
#14609594500
0#
#14609595000
1#
#14609595500
0#
#14609596000
1#
#14609596500
0#
#14609597000
1#
#14609597500
0#
#14609598000
1#
#14609598500
0#
#14609599000
1#
#14609599500
0#
#14609600000
1#
#14609600500
1!
0#
#14609605750
1"
1$
#14609626000
0$
#14609628750
1#
#14609629333
0!
0#
#14609629750
1#
#14609630250
1!
#14609630333
0#
#14609630750
1#
#14609631333
0#
#14609631750
1#
#14609632333
0#
#14609632750
1#
#14609633333
0!
0#
#14609633750
1#
#14609634333
0#
#14609634750
1#
#14609635333
0#
#14609635750
1#
#14609636250
1!
#14609636333
0#
#14609637500
1#
#14609638000
0!
0#
#14609638500
1#
#14609639000
1!
0#
#14609639500
1#
#14609640000
0!
0#
#14609640500
1#
#14609641000
1!
0#
#14609641500
1#
#14609642000
0!
0#
#14609642500
1#
#14609643000
1!
0#
#14609643500
1#
#14609644000
0!
0#
#14609644500
0"
1#
1%
#14609645000
1!
0#
#14609652333
1$
#14609652416
1"
#14609665250
0"
0$
#14609667500
0!
#14609668000
1#
#14609668500
0#
#14609669000
1#
#14609669500
0#
#14609670000
1#
#14609670500
0#
#14609671000
1#
#14609671500
0#
#14609672000
1#
#14609672500
0#
#14609673000
1#
#14609673500
0#
#14609674000
1#
#14609674500
1"
0#
#14609675000
1#
#14609675500
1!
0"
0#
#14609676166
0!
#14609676666
1#
#14609677166
0#
#14609677666
1#
#14609678166
0#
#14609678666
1#
#14609679166
0#
#14609679666
1#
#14609680166
0#
#14609680666
1#
#14609681166
0#
#14609681666
1#
#14609682166
0#
#14609682666
1#
#14609683166
0#
#14609683666
1#
#14609684166
1!
0#
#14609689416
1$
#14609689500
1"
#14609703500
0"
0$
#14609705750
0!
#14609706250
1#
#14609706750
0#
#14609707250
1#
#14609707750
0#
#14609708250
1#
#14609708750
0#
#14609709250
1#
#14609709750
0#
#14609710250
1#
#14609710750
0#
#14609711250
1#
#14609711750
0#
#14609712250
1#
#14609712750
1"
0#
#14609713250
1#
#14609713750
1!
0"
0#
#14609714416
0!
#14609714916
1#
#14609715416
0#
#14609715916
1#
#14609716416
0#
#14609716916
1#
#14609717416
0#
#14609717916
1#
#14609718416
0#
#14609718916
1#
#14609719416
0#
#14609719916
1#
#14609720416
0#
#14609720916
1#
#14609721416
0#
#14609721916
1#
#14609722416
1!
0#
#14609727666
1$
#14609727750
1"
#14609741750
0"
0$
#14609744000
0!
#14609744500
1#
#14609745000
0#
#14609745500
1#
#14609746000
0#
#14609746500
1#
#14609747000
0#
#14609747500
1#
#14609748000
0#
#14609748500
1#
#14609749000
0#
#14609749500
1#
#14609750000
0#
#14609750500
1#
#14609751000
1"
0#
#14609751500
1#
#14609752000
1!
0"
0#
#14609752666
0!
#14609753166
1#
#14609753666
0#
#14609754166
1#
#14609754666
0#
#14609755166
1#
#14609755666
0#
#14609756166
1#
#14609756666
0#
#14609757166
1#
#14609757666
0#
#14609758166
1#
#14609758666
0#
#14609759166
1#
#14609759666
0#
#14609760166
1#
#14609760666
1!
0#
#14609765916
1$
#14609766000
1"
#14609780000
0"
0$
#14609782250
0!
#14609782750
1#
#14609783250
0#
#14609783750
1#
#14609784250
0#
#14609784750
1#
#14609785250
0#
#14609785750
1#
#14609786250
0#
#14609786750
1#
#14609787250
0#
#14609787750
1#
#14609788250
0#
#14609788750
1#
#14609789250
1"
0#
#14609789750
1#
#14609790250
1!
0"
0#
#14609790916
0!
#14609791416
1#
#14609791916
0#
#14609792416
1#
#14609792916
0#
#14609793416
1#
#14609793916
0#
#14609794416
1#
#14609794916
0#
#14609795416
1#
#14609795916
0#
#14609796416
1#
#14609796916
0#
#14609797416
1#
#14609797916
0#
#14609798416
1#
#14609798916
1!
0#
0%
#14609807333
1"
1$
#14609821333
0$
#14609823583
0!
#14609824083
1#
#14609824583
0#
#14609824666
0"
#14609825083
1#
#14609825583
0#
#14609826083
1#
#14609826583
0#
#14609827083
1#
#14609827583
0#
#14609828083
1#
#14609828583
0#
#14609829083
1#
#14609829583
0#
#14609830083
1#
#14609830583
0#
#14609830666
1"
#14609831083
1#
#14609831583
1!
0#
#14609831666
0"
#14609832333
0!
#14609832833
1#
#14609833333
0#
#14609833833
1#
#14609834333
0#
#14609834833
1#
#14609835333
0#
#14609835833
1#
#14609836333
0#
#14609836833
1#
#14609837333
0#
#14609837833
1#
#14609838333
0#
#14609838833
1#
#14609839333
0#
#14609839833
1#
#14609840333
1!
0#
#14609845583
1"
1$
#14609865833
0$
#14609868583
1#
#14609869083
0!
0#
#14609869583
1#
#14609870083
1!
0#
#14609870583
1#
#14609871083
0#
#14609871583
1#
#14609872083
0#
#14609872583
1#
#14609873083
0!
0#
#14609873583
1#
#14609874083
0#
#14609874583
1#
#14609875083
0#
#14609875583
1#
#14609876083
1!
0#
#14609877333
1#
#14609877833
0!
0#
#14609878333
1#
#14609878833
1!
0#
#14609879333
1#
#14609879833
0!
0#
#14609880333
1#
#14609880833
1!
0#
#14609881333
1#
#14609881833
0!
0#
#14609882333
1#
#14609882833
1!
0#
#14609883333
1#
#14609883833
0!
0#
#14609884333
0"
1#
1%
#14609884833
1!
0#
#14609892166
1$
#14609892250
1"
#14609905083
0"
0$
#14609907333
0!
#14609907833
1#
#14609908333
0#
#14609908833
1#
#14609909333
0#
#14609909833
1#
#14609910333
0#
#14609910833
1#
#14609911333
0#
#14609911833
1#
#14609912333
0#
#14609912833
1#
#14609913333
0#
#14609913833
1#
#14609914333
1"
0#
#14609914833
1#
#14609915333
1!
0"
0#
#14609916000
0!
#14609916500
1#
#14609917000
0#
#14609917500
1#
#14609918000
0#
#14609918500
1#
#14609919000
0#
#14609919500
1#
#14609920000
0#
#14609920500
1#
#14609921000
0#
#14609921500
1#
#14609922000
0#
#14609922500
1#
#14609923000
0#
#14609923500
1#
#14609924000
1!
0#
#14609929250
1"
1$
#14609943333
0"
0$
#14609945583
0!
#14609946083
1#
#14609946583
0#
#14609947083
1#
#14609947583
0#
#14609948083
1#
#14609948583
0#
#14609949083
1#
#14609949583
0#
#14609950083
1#
#14609950583
0#
#14609951083
1#
#14609951583
0#
#14609952083
1#
#14609952583
1"
0#
#14609953083
1#
#14609953583
1!
0"
0#
#14609954250
0!
#14609954750
1#
#14609955250
0#
#14609955750
1#
#14609956250
0#
#14609956750
1#
#14609957250
0#
#14609957750
1#
#14609958250
0#
#14609958750
1#
#14609959250
0#
#14609959750
1#
#14609960250
0#
#14609960750
1#
#14609961250
0#
#14609961750
1#
#14609962250
1!
0#
#14609967500
1"
1$
#14609981583
0"
0$
#14609983833
0!
#14609984333
1#
#14609984833
0#
#14609985333
1#
#14609985833
0#
#14609986333
1#
#14609986833
0#
#14609987333
1#
#14609987833
0#
#14609988333
1#
#14609988833
0#
#14609989333
1#
#14609989833
0#
#14609990333
1#
#14609990833
1"
0#
#14609991333
1#
#14609991833
1!
0"
0#
#14609992500
0!
#14609993000
1#
#14609993500
0#
#14609994000
1#
#14609994500
0#
#14609995000
1#
#14609995500
0#
#14609996000
1#
#14609996500
0#
#14609997000
1#
#14609997500
0#
#14609998000
1#
#14609998500
0#
#14609999000
1#
#14609999500
0#
#14610000000
1#
#14610000500
1!
0#
0%
#14610008833
1$
#14610008916
1"
#14610022916
0$
#14610025166
0!
#14610025666
1#
#14610026166
0#
#14610026250
0"
#14610026666
1#
#14610027166
0#
#14610027666
1#
#14610028166
0#
#14610028666
1#
#14610029166
0#
#14610029666
1#
#14610030166
0#
#14610030666
1#
#14610031166
0#
#14610031666
1#
#14610032166
1"
0#
#14610032666
1#
#14610033166
1!
0#
#14610033250
0"
#14610033833
0!
#14610034333
1#
#14610034833
0#
#14610035333
1#
#14610035833
0#
#14610036333
1#
#14610036833
0#
#14610037333
1#
#14610037833
0#
#14610038333
1#
#14610038833
0#
#14610039333
1#
#14610039833
0#
#14610040333
1#
#14610040833
0#
#14610041333
1#
#14610041833
1!
0#
#14610047083
1$
#14610047166
1"
#14610067416
0$
#14610070166
1#
#14610070666
0!
0#
#14610071166
1#
#14610071666
1!
0#
#14610072166
1#
#14610072666
0#
#14610073166
1#
#14610073666
0#
#14610074166
1#
#14610074666
0!
0#
#14610075166
1#
#14610075666
0#
#14610076166
1#
#14610076666
0#
#14610077166
1#
#14610077666
1!
0#
#14610078333
0!
#14610078833
1#
#14610079333
0#
#14610079833
1#
#14610080333
1!
0#
#14610080833
1#
#14610081333
0#
#14610081416
0!
#14610081833
1#
#14610082333
1!
0#
#14610082833
1#
#14610083333
0#
#14610083833
1#
#14610084333
0#
#14610084416
0!
#14610084833
1#
#14610085333
1!
0#
#14610085833
1#
#14610085916
0"
1%
#14610086333
0#
