logicdumps/sender.vcd
$timescale 1 ns $end
$scope module top $end
$var wire 1 ! MOSI $end
$var wire 1 " MISO $end
$var wire 1 # CLOCK $end
$var wire 1 $ ENABLE $end
$var wire 1 % nIRQ $end
$upscope $end
$enddefinitions $end
#11248747250
1!
1"
0#
1$
1%
#11495920500
0$
#11495920625
0"
#11495923000
1#
#11495923500
0!
0#
#11495924000
1#
#11495924500
0#
#11495925000
1#
#11495925500
0#
#11495926000
1#
#11495926500
0#
#11495927000
1#
#11495927500
0#
#11495928000
1#
#11495928500
1!
0#
#11495929000
1#
#11495929500
0!
0#
#11495930000
1#
#11495930500
1!
0#
#11495931250
0!
#11495931750
1#
#11495932250
0#
#11495932750
1#
#11495933250
0#
#11495933750
1#
#11495934250
0#
#11495934750
1#
#11495935250
0#
#11495935750
1#
#11495936250
1!
0#
#11495936750
1#
#11495937250
0!
0#
#11495937750
1#
#11495938250
1!
0#
#11495938750
1#
#11495939250
0#
#11495944125
1"
1$
#12496448375
0$
#12496448500
0"
#12496450875
1#
#12496451375
0!
0#
#12496451875
1#
#12496452375
0#
#12496452875
1#
#12496453375
0#
#12496453875
1#
#12496454375
0#
#12496454875
1#
#12496455375
0#
#12496455875
1#
#12496456375
0#
#12496456875
1#
#12496457375
0#
#12496457875
1#
#12496458375
1!
0#
#12496459625
1#
#12496460125
0!
0#
#12496460625
1#
#12496461125
0#
#12496461625
1#
#12496462125
1!
0#
#12496462625
1#
#12496463125
0!
0#
#12496463625
1#
#12496464125
1!
0#
#12496464625
1#
#12496465125
0#
#12496465625
1#
#12496466125
0#
#12496466625
1#
#12496467125
0#
#12496472000
1"
1$
#12496487500
0"
0$
#12496490000
1#
#12496490500
0!
0#
#12496491000
1#
#12496491500
0#
#12496492000
1#
#12496492500
0#
#12496493000
1#
#12496493500
0#
#12496494000
1#
#12496494500
0#
#12496495000
1#
#12496495500
1!
0#
#12496496000
1#
#12496496500
0!
0#
#12496497000
1#
#12496497500
1!
0#
#12496498125
0!
#12496498625
1#
#12496499125
0#
#12496499625
1#
#12496500125
1!
0#
#12496500625
1#
#12496501125
0#
#12496501625
1#
#12496502125
0#
#12496502625
1#
#12496503125
0#
#12496503625
1#
#12496504125
0!
0#
#12496504625
1#
#12496505125
1!
0#
#12496505625
1#
#12496506125
0#
#12496511000
1$
#12496511125
1"
#12498747250
0%
#12498759000
0$
#12498761000
0!
#12498761500
1#
#12498762000
0#
#12498762125
0"
#12498762500
1#
#12498763000
0#
#12498763500
1#
#12498764000
0#
#12498764500
1#
#12498765000
0#
#12498765500
1#
#12498766000
0#
#12498766500
1#
#12498767000
0#
#12498767500
1#
#12498768000
0#
#12498768125
1"
#12498768500
1#
#12498769000
1!
0#
#12498769125
0"
#12498769750
0!
#12498770250
1#
#12498770750
0#
#12498771250
1#
#12498771750
0#
#12498772250
1#
#12498772750
0#
#12498773250
1#
#12498773750
0#
#12498774250
1#
#12498774750
0#
#12498775250
1#
#12498775750
0#
#12498776250
1#
#12498776750
0#
#12498777250
1#
#12498777750
1!
0#
#12498782625
1"
1$
#12498802250
0$
#12498804750
1#
#12498805250
0!
0#
#12498805750
1#
#12498806250
1!
0#
#12498806750
1#
#12498807250
0#
#12498807750
1#
#12498808250
0#
#12498808750
1#
#12498809250
0#
#12498809375
0!
#12498809750
1#
#12498810250
0#
#12498810750
1#
#12498811250
0#
#12498811750
1#
#12498812250
1!
0#
#12498813500
1#
#12498814000
0!
0#
#12498814500
1#
#12498815000
1!
0#
#12498815500
1#
#12498816000
0!
0#
#12498816500
1#
#12498817000
1!
0#
#12498817500
1#
#12498818000
0!
0#
#12498818500
1#
#12498819000
1!
0#
#12498819500
1#
#12498820000
0!
0#
#12498820500
0"
1#
1%
#12498821000
1!
0#
#12498828000
1"
1$
#12498956125
0%
#12498967125
0$
#12498969125
0!
#12498969625
1#
#12498970125
0"
0#
#12498970625
1#
#12498971125
0#
#12498971625
1#
#12498972125
0#
#12498972625
1#
#12498973125
0#
#12498973625
1#
#12498974125
0#
#12498974625
1#
#12498975125
0#
#12498975625
1#
#12498976125
1"
0#
#12498976625
1#
#12498977125
1!
0"
0#
#12498977875
0!
#12498978375
1#
#12498978875
0#
#12498979375
1#
#12498979875
0#
#12498980375
1#
#12498980875
0#
#12498981375
1#
#12498981875
0#
#12498982375
1#
#12498982875
0#
#12498983375
1#
#12498983875
0#
#12498984375
1#
#12498984875
0#
#12498985375
1#
#12498985875
1!
0#
#12498990625
1$
#12498990750
1"
#12499010375
0$
#12499012875
1#
#12499013375
0!
0#
#12499013875
1#
#12499014375
1!
0#
#12499014875
1#
#12499015375
0#
#12499015875
1#
#12499016375
0#
#12499016875
1#
#12499017375
0!
0#
#12499017875
1#
#12499018375
0#
#12499018875
1#
#12499019375
0#
#12499019875
1#
#12499020375
1!
0#
#12499021625
1#
#12499022125
0!
0#
#12499022625
1#
#12499023125
1!
0#
#12499023625
1#
#12499024125
0!
0#
#12499024625
1#
#12499025125
1!
0#
#12499025625
1#
#12499026125
0!
0#
#12499026625
1#
#12499027125
1!
0#
#12499027625
1#
#12499028125
0!
0#
#12499028625
0"
1#
1%
#12499029125
1!
0#
#12499036125
1"
1$
#12499165000
0%
#12499176625
0$
#12499178625
0!
#12499179125
1#
#12499179625
0"
0#
#12499180125
1#
#12499180625
0#
#12499181125
1#
#12499181625
0#
#12499182125
1#
#12499182625
0#
#12499183125
1#
#12499183625
0#
#12499184125
1#
#12499184625
0#
#12499185125
1#
#12499185625
1"
0#
#12499186125
1#
#12499186625
1!
0"
0#
#12499187250
0!
#12499187750
1#
#12499188250
0#
#12499188750
1#
#12499189250
0#
#12499189750
1#
#12499190250
0#
#12499190750
1#
#12499191250
0#
#12499191750
1#
#12499192250
0#
#12499192750
1#
#12499193250
0#
#12499193750
1#
#12499194250
0#
#12499194750
1#
#12499195250
1!
0#
#12499200125
1"
1$
#12499219875
0$
#12499222375
1#
#12499222875
0!
0#
#12499223375
1#
#12499223875
1!
0#
#12499224375
1#
#12499224875
0#
#12499225375
1#
#12499225875
0#
#12499226375
1#
#12499226875
0!
0#
#12499227375
1#
#12499227875
0#
#12499228375
1#
#12499228875
0#
#12499229375
1#
#12499229875
1!
0#
#12499231000
1#
#12499231500
0!
0#
#12499232000
1#
#12499232500
1!
0#
#12499233000
1#
#12499233500
0!
0#
#12499234000
1#
#12499234500
1!
0#
#12499235000
1#
#12499235500
0!
0#
#12499236000
1#
#12499236500
1!
0#
#12499237000
1#
#12499237500
0!
0#
#12499238000
1#
1%
#12499238125
0"
#12499238500
1!
0#
#12499245500
1"
1$
#12499373750
0%
#12499384625
0$
#12499386625
0!
#12499387125
1#
#12499387625
0#
#12499387750
0"
#12499388125
1#
#12499388625
0#
#12499389125
1#
#12499389625
0#
#12499390125
1#
#12499390625
0#
#12499391125
1#
#12499391625
0#
#12499392125
1#
#12499392625
0#
#12499393125
1#
#12499393625
1"
0#
#12499394125
1#
#12499394625
1!
0#
#12499394750
0"
#12499395375
0!
#12499395875
1#
#12499396375
0#
#12499396875
1#
#12499397375
0#
#12499397875
1#
#12499398375
0#
#12499398875
1#
#12499399375
0#
#12499399875
1#
#12499400375
0#
#12499400875
1#
#12499401375
0#
#12499401875
1#
#12499402375
0#
#12499402875
1#
#12499403375
1!
0#
#12499408250
1"
1$
#12499427875
0$
#12499430375
1#
#12499430875
0!
0#
#12499431375
1#
#12499431875
1!
0#
#12499432375
1#
#12499432875
0#
#12499433375
1#
#12499433875
0#
#12499434375
1#
#12499434875
0!
0#
#12499435375
1#
#12499435875
0#
#12499436375
1#
#12499436875
0#
#12499437375
1#
#12499437875
1!
0#
#12499439125
1#
#12499439625
0!
0#
#12499440125
1#
#12499440625
1!
0#
#12499441125
1#
#12499441625
0!
0#
#12499442125
1#
#12499442625
1!
0#
#12499443125
1#
#12499443625
0!
0#
#12499444125
1#
#12499444625
1!
0#
#12499445125
1#
#12499445625
0!
0#
#12499446125
0"
1#
1%
#12499446625
1!
0#
#12499453625
1"
1$
#12499582625
0%
#12499594125
0$
#12499596125
0!
#12499596625
1#
#12499597125
0"
0#
#12499597625
1#
#12499598125
0#
#12499598625
1#
#12499599125
0#
#12499599625
1#
#12499600125
0#
#12499600625
1#
#12499601125
0#
#12499601625
1#
#12499602125
0#
#12499602625
1#
#12499603125
1"
0#
#12499603625
1#
#12499604125
1!
0"
0#
#12499604750
0!
#12499605250
1#
#12499605750
0#
#12499606250
1#
#12499606750
0#
#12499607250
1#
#12499607750
0#
#12499608250
1#
#12499608750
0#
#12499609250
1#
#12499609750
0#
#12499610250
1#
#12499610750
0#
#12499611250
1#
#12499611750
0#
#12499612250
1#
#12499612750
1!
0#
#12499617625
1$
#12499617750
1"
#12499637375
0$
#12499639875
1#
#12499640375
0!
0#
#12499640875
1#
#12499641375
1!
0#
#12499641875
1#
#12499642375
0#
#12499642875
1#
#12499643375
0#
#12499643875
1#
#12499644375
0!
0#
#12499644875
1#
#12499645375
0#
#12499645875
1#
#12499646375
0#
#12499646875
1#
#12499647375
1!
0#
#12499648000
0!
#12499648500
1#
#12499649000
0#
#12499649500
1#
#12499650000
1!
0#
#12499650500
1#
#12499651000
0!
0#
#12499651500
1#
#12499652000
1!
0#
#12499652500
1#
#12499653000
0#
#12499653500
1#
#12499654000
0!
0#
#12499654500
1#
#12499655000
1!
0#
#12499655500
1#
#12499655625
0"
1%
#12499656000
0#
#12499663000
1$
#12499663125
1"
#12499791375
0%
#12499802125
0$
#12499804125
0!
#12499804625
1#
#12499805125
0#
#12499805250
0"
#12499805625
1#
#12499806125
0#
#12499806625
1#
#12499807125
0#
#12499807625
1#
#12499808125
0#
#12499808625
1#
#12499809125
0#
#12499809625
1#
#12499810125
0#
#12499810625
1#
#12499811125
1"
0#
#12499811625
1#
#12499812125
1!
0#
#12499812250
0"
#12499812875
0!
#12499813375
1#
#12499813875
0#
#12499814375
1#
#12499814875
0#
#12499815375
1#
#12499815875
0#
#12499816375
1#
#12499816875
0#
#12499817375
1#
#12499817875
0#
#12499818375
1#
#12499818875
0#
#12499819375
1#
#12499819875
0#
#12499820375
1#
#12499820875
1!
0#
#12499825750
1"
1$
#12499845375
0$
#12499847875
1#
#12499848375
0!
0#
#12499848875
1#
#12499849375
1!
0#
#12499849875
1#
#12499850375
0#
#12499850875
1#
#12499851375
0#
#12499851875
1#
#12499852375
0!
0#
#12499852875
1#
#12499853375
0#
#12499853875
1#
#12499854375
0#
#12499854875
1#
#12499855375
1!
0#
#12499856625
1#
#12499857125
0#
#12499857625
1#
#12499858125
0!
0#
#12499858625
1#
#12499859125
1!
0#
#12499859625
1#
#12499860125
0!
0#
#12499860625
1#
#12499861125
1!
0#
#12499861625
1#
#12499862125
0!
0#
#12499862625
1#
#12499863125
0#
#12499863625
0"
1#
1%
#12499864125
1!
0#
#12499871125
1"
1$
#12500000250
0%
#12500011625
0$
#12500013625
0!
#12500014125
1#
#12500014625
0"
0#
#12500015125
1#
#12500015625
0#
#12500016125
1#
#12500016625
0#
#12500017125
1#
#12500017625
0#
#12500018125
1#
#12500018625
0#
#12500019125
1#
#12500019625
0#
#12500020125
1#
#12500020625
1"
0#
#12500021125
1#
#12500021625
1!
0"
0#
#12500022250
0!
#12500022750
1#
#12500023250
0#
#12500023750
1#
#12500024250
0#
#12500024750
1#
#12500025250
0#
#12500025750
1#
#12500026250
0#
#12500026750
1#
#12500027250
0#
#12500027750
1#
#12500028250
0#
#12500028750
1#
#12500029250
0#
#12500029750
1#
#12500030250
1!
0#
#12500035125
1$
#12500035250
1"
#12500054875
0$
#12500057375
1#
#12500057875
0!
0#
#12500058375
1#
#12500058875
1!
0#
#12500059375
1#
#12500059875
0#
#12500060375
1#
#12500060875
0#
#12500061375
1#
#12500061875
0!
0#
#12500062375
1#
#12500062875
0#
#12500063375
1#
#12500063875
0#
#12500064375
1#
#12500064875
1!
0#
#12500065500
0!
#12500066000
1#
#12500066500
0#
#12500067000
1#
#12500067500
0#
#12500068000
1#
#12500068500
0#
#12500069000
1#
#12500069500
0#
#12500070000
1#
#12500070500
0#
#12500071000
1#
#12500071500
0#
#12500072000
1#
#12500072500
1!
0#
#12500073000
1#
#12500073125
0"
1%
#12500073500
0#
#12500080500
1$
#12500080625
1"
#12500209000
0%
#12500219625
0$
#12500221625
0!
#12500222125
1#
#12500222625
0#
#12500222750
0"
#12500223125
1#
#12500223625
0#
#12500224125
1#
#12500224625
0#
#12500225125
1#
#12500225625
0#
#12500226125
1#
#12500226625
0#
#12500227125
1#
#12500227625
0#
#12500228125
1#
#12500228625
0#
#12500228750
1"
#12500229125
1#
#12500229625
1!
0#
#12500229750
0"
#12500230375
0!
#12500230875
1#
#12500231375
0#
#12500231875
1#
#12500232375
0#
#12500232875
1#
#12500233375
0#
#12500233875
1#
#12500234375
0#
#12500234875
1#
#12500235375
0#
#12500235875
1#
#12500236375
0#
#12500236875
1#
#12500237375
0#
#12500237875
1#
#12500238375
1!
0#
#12500243250
1"
1$
#12500262875
0$
#12500265375
1#
#12500265875
0!
0#
#12500266375
1#
#12500266875
1!
0#
#12500267375
1#
#12500267875
0#
#12500268375
1#
#12500268875
0#
#12500269375
1#
#12500269875
0!
0#
#12500270375
1#
#12500270875
0#
#12500271375
1#
#12500271875
0#
#12500272375
1#
#12500272875
1!
0#
#12500273625
0!
#12500274125
1#
#12500274625
0#
#12500275125
1#
#12500275625
0#
#12500276125
1#
#12500276625
0#
#12500277125
1#
#12500277625
0#
#12500278125
1#
#12500278625
0#
#12500279125
1#
#12500279625
1!
0#
#12500280125
1#
#12500280625
0!
0#
#12500281125
0"
1#
1%
#12500281625
1!
0#
#12500288625
1"
1$
#12500417875
0%
#12500429125
0$
#12500431125
0!
#12500431625
1#
#12500432125
0"
0#
#12500432625
1#
#12500433125
0#
#12500433625
1#
#12500434125
0#
#12500434625
1#
#12500435125
0#
#12500435625
1#
#12500436125
0#
#12500436625
1#
#12500437125
0#
#12500437625
1#
#12500438125
1"
0#
#12500438625
1#
#12500439125
1!
0"
0#
#12500439875
0!
#12500440250
1#
#12500440875
0#
#12500441250
1#
#12500441875
0#
#12500442250
1#
#12500442875
0#
#12500443250
1#
#12500443875
0#
#12500444250
1#
#12500444875
0#
#12500445250
1#
#12500445875
0#
#12500446250
1#
#12500446875
0#
#12500447250
1#
#12500447875
1!
0#
#12500452625
1$
#12500452750
1"
#12500472375
0$
#12500474875
1#
#12500475375
0!
0#
#12500475875
1#
#12500476375
1!
0#
#12500476875
1#
#12500477375
0#
#12500477875
1#
#12500478375
0#
#12500478875
1#
#12500479375
0!
0#
#12500479875
1#
#12500480375
0#
#12500480875
1#
#12500481375
0#
#12500481875
1#
#12500482375
1!
0#
#12500483125
0!
#12500483625
1#
#12500484125
0#
#12500484625
1#
#12500485125
0#
#12500485625
1#
#12500486125
0#
#12500486625
1#
#12500487125
0#
#12500487625
1#
#12500488125
0#
#12500488625
1#
#12500489125
1!
0#
#12500489625
1#
#12500490125
0#
#12500490625
0"
1#
1%
#12500491125
0#
#12500498000
1$
#12500498125
1"
#12500626750
0%
#12500638625
0$
#12500640625
0!
#12500641125
1#
#12500641625
0"
0#
#12500642125
1#
#12500642625
0#
#12500643125
1#
#12500643625
0#
#12500644125
1#
#12500644625
0#
#12500645125
1#
#12500645625
0#
#12500646125
1#
#12500646625
0#
#12500647125
1#
#12500647625
1"
0#
#12500648125
1#
#12500648625
1!
0"
0#
#12500649250
0!
#12500649750
1#
#12500650250
0#
#12500650750
1#
#12500651250
0#
#12500651750
1#
#12500652250
0#
#12500652750
1#
#12500653250
0#
#12500653750
1#
#12500654250
0#
#12500654750
1#
#12500655250
0#
#12500655750
1#
#12500656250
0#
#12500656750
1#
#12500657250
1!
0#
#12500662125
1"
1$
#12500681875
0$
#12500684375
1#
#12500684875
0!
0#
#12500685375
1#
#12500685875
1!
0#
#12500686375
1#
#12500686875
0#
#12500687375
1#
#12500687875
0#
#12500688375
1#
#12500688875
0!
0#
#12500689375
1#
#12500689875
0#
#12500690375
1#
#12500690875
0#
#12500691375
1#
#12500691875
1!
0#
#12500692500
0!
#12500693000
1#
#12500693500
0#
#12500694000
1#
#12500694500
0#
#12500695000
1#
#12500695500
0#
#12500696000
1#
#12500696500
0#
#12500697000
1#
#12500697500
1!
0#
#12500698000
1#
#12500698500
0!
0#
#12500699000
1#
#12500699500
0#
#12500700000
1#
1%
#12500700125
0"
#12500700500
1!
0#
#12500707500
1"
1$
#12500835500
0%
#12500846625
0$
#12500848625
0!
#12500849125
1#
#12500849625
0#
#12500849750
0"
#12500850125
1#
#12500850625
0#
#12500851125
1#
#12500851625
0#
#12500852125
1#
#12500852625
0#
#12500853125
1#
#12500853625
0#
#12500854125
1#
#12500854625
0#
#12500855125
1#
#12500855625
1"
0#
#12500856125
1#
#12500856625
1!
0#
#12500856750
0"
#12500857375
0!
#12500857875
1#
#12500858375
0#
#12500858875
1#
#12500859375
0#
#12500859875
1#
#12500860375
0#
#12500860875
1#
#12500861375
0#
#12500861875
1#
#12500862375
0#
#12500862875
1#
#12500863375
0#
#12500863875
1#
#12500864375
0#
#12500864875
1#
#12500865375
1!
0#
#12500870250
1"
1$
#12500889875
0$
#12500892375
1#
#12500892875
0!
0#
#12500893375
1#
#12500893875
1!
0#
#12500894375
1#
#12500894875
0#
#12500895375
1#
#12500895875
0#
#12500896375
1#
#12500896875
0!
0#
#12500897375
1#
#12500897875
0#
#12500898375
1#
#12500898875
0#
#12500899375
1#
#12500899875
1!
0#
#12500900625
0!
#12500901125
1#
#12500901625
1!
0#
#12500902125
1#
#12500902625
0!
0#
#12500903125
1#
#12500903625
0#
#12500904125
1#
#12500904625
0#
#12500905125
1#
#12500905625
0#
#12500906125
1#
#12500906625
1!
0#
#12500907125
1#
#12500907625
0!
0#
#12500908125
0"
1#
1%
#12500908625
1!
0#
#12500915625
1"
1$
#12501044375
0%
#12501056125
0$
#12501058125
0!
#12501058625
1#
#12501059125
0"
0#
#12501059625
1#
#12501060125
0#
#12501060625
1#
#12501061125
0#
#12501061625
1#
#12501062125
0#
#12501062625
1#
#12501063125
0#
#12501063625
1#
#12501064125
0#
#12501064625
1#
#12501065125
1"
0#
#12501065625
1#
#12501066125
1!
0"
0#
#12501066750
0!
#12501067250
1#
#12501067750
0#
#12501068250
1#
#12501068750
0#
#12501069250
1#
#12501069750
0#
#12501070250
1#
#12501070750
0#
#12501071250
1#
#12501071750
0#
#12501072250
1#
#12501072750
0#
#12501073250
1#
#12501073750
0#
#12501074250
1#
#12501074750
1!
0#
#12501079625
1$
#12501079750
1"
#12501099375
0$
#12501101875
1#
#12501102375
0!
0#
#12501102875
1#
#12501103375
1!
0#
#12501103875
1#
#12501104375
0#
#12501104875
1#
#12501105375
0#
#12501105875
1#
#12501106375
0!
0#
#12501106875
1#
#12501107375
0#
#12501107875
1#
#12501108375
0#
#12501108875
1#
#12501109375
1!
0#
#12501110500
1#
#12501111000
0!
0#
#12501111500
1#
#12501112000
1!
0#
#12501112500
1#
#12501113000
0#
#12501113500
1#
#12501114000
0!
0#
#12501114500
1#
#12501115000
0#
#12501115500
1#
#12501116000
0#
#12501116500
1#
#12501117000
0#
#12501117500
1#
1%
#12501117625
0"
#12501118000
1!
0#
#12501125000
1$
#12501125125
1"
#12501253125
0%
#12501264125
0$
#12501266125
0!
#12501266625
1#
#12501267125
0#
#12501267250
0"
#12501267625
1#
#12501268125
0#
#12501268625
1#
#12501269125
0#
#12501269625
1#
#12501270125
0#
#12501270625
1#
#12501271125
0#
#12501271625
1#
#12501272125
0#
#12501272625
1#
#12501273125
1"
0#
#12501273625
1#
#12501274125
1!
0#
#12501274250
0"
#12501274875
0!
#12501275375
1#
#12501275875
0#
#12501276375
1#
#12501276875
0#
#12501277375
1#
#12501277875
0#
#12501278375
1#
#12501278875
0#
#12501279375
1#
#12501279875
0#
#12501280375
1#
#12501280875
0#
#12501281375
1#
#12501281875
0#
#12501282375
1#
#12501282875
1!
0#
#12501287750
1"
1$
#12501307375
0$
#12501309875
1#
#12501310375
0!
0#
#12501310875
1#
#12501311375
1!
0#
#12501311875
1#
#12501312375
0#
#12501312875
1#
#12501313375
0#
#12501313875
1#
#12501314375
0!
0#
#12501314875
1#
#12501315375
0#
#12501315875
1#
#12501316375
0#
#12501316875
1#
#12501317375
1!
0#
#12501318125
0!
#12501318625
1#
#12501319125
0#
#12501319625
1#
#12501320125
0#
#12501320625
1#
#12501321125
0#
#12501321625
1#
#12501322125
1!
0#
#12501322625
1#
#12501323125
0!
0#
#12501323625
1#
#12501324125
1!
0#
#12501324625
1#
#12501325125
0#
#12501325625
0"
1#
1%
#12501326125
0#
#12501333125
1"
1$
#12501462000
0%
#12501473625
0$
#12501475625
0!
#12501476125
1#
#12501476625
0"
0#
#12501477125
1#
#12501477625
0#
#12501478125
1#
#12501478625
0#
#12501479125
1#
#12501479625
0#
#12501480125
1#
#12501480625
0#
#12501481125
1#
#12501481625
0#
#12501482125
1#
#12501482625
1"
0#
#12501483125
1#
#12501483625
1!
0"
0#
#12501484250
0!
#12501484750
1#
#12501485250
0#
#12501485750
1#
#12501486250
0#
#12501486750
1#
#12501487250
0#
#12501487750
1#
#12501488250
0#
#12501488750
1#
#12501489250
0#
#12501489750
1#
#12501490250
0#
#12501490750
1#
#12501491250
0#
#12501491750
1#
#12501492250
1!
0#
#12501497125
1$
#12501497250
1"
#12501516875
0$
#12501519375
1#
#12501519875
0!
0#
#12501520375
1#
#12501520875
1!
0#
#12501521375
1#
#12501521875
0#
#12501522375
1#
#12501522875
0#
#12501523375
1#
#12501523875
0!
0#
#12501524375
1#
#12501524875
0#
#12501525375
1#
#12501525875
0#
#12501526375
1#
#12501526875
1!
0#
#12501528000
1#
#12501528500
0#
#12501529000
1#
#12501529500
0#
#12501530000
1#
#12501530500
0!
0#
#12501531000
1#
#12501531500
0#
#12501532000
1#
#12501532500
0#
#12501533000
1#
#12501533500
1!
0#
#12501534000
1#
#12501534500
0#
#12501535000
1#
#12501535125
0"
1%
#12501535500
0#
#12501542500
1$
#12501542625
1"
#12501670750
0%
#12501681625
0$
#12501683625
0!
#12501684125
1#
#12501684625
0#
#12501684750
0"
#12501685125
1#
#12501685625
0#
#12501686125
1#
#12501686625
0#
#12501687125
1#
#12501687625
0#
#12501688125
1#
#12501688625
0#
#12501689125
1#
#12501689625
0#
#12501690125
1#
#12501690625
0#
#12501690750
1"
#12501691125
1#
#12501691625
1!
0#
#12501691750
0"
#12501692375
0!
#12501692875
1#
#12501693375
0#
#12501693875
1#
#12501694375
0#
#12501694875
1#
#12501695375
0#
#12501695875
1#
#12501696375
0#
#12501696875
1#
#12501697375
0#
#12501697875
1#
#12501698375
0#
#12501698875
1#
#12501699375
0#
#12501699875
1#
#12501700375
1!
0#
#12501705250
1"
1$
#12501724875
0$
#12501727375
1#
#12501727875
0!
0#
#12501728375
1#
#12501728875
1!
0#
#12501729375
1#
#12501729875
0#
#12501730375
1#
#12501730875
0#
#12501731375
1#
#12501731875
0!
0#
#12501732375
1#
#12501732875
0#
#12501733375
1#
#12501733875
0#
#12501734375
1#
#12501734875
1!
0#
#12501736125
1#
#12501736625
0!
0#
#12501737125
1#
#12501737625
1!
0#
#12501738125
1#
#12501738625
0!
0#
#12501739125
1#
#12501739625
1!
0#
#12501740125
1#
#12501740625
0!
0#
#12501741125
1#
#12501741625
1!
0#
#12501742125
1#
#12501742625
0!
0#
#12501743125
0"
1#
1%
#12501743625
1!
0#
#12501750625
1"
1$
#12501879625
0%
#12501891125
0$
#12501893125
0!
#12501893625
1#
#12501894125
0"
0#
#12501894625
1#
#12501895125
0#
#12501895625
1#
#12501896125
0#
#12501896625
1#
#12501897125
0#
#12501897625
1#
#12501898125
0#
#12501898625
1#
#12501899125
0#
#12501899625
1#
#12501900125
1"
0#
#12501900625
1#
#12501901125
1!
0"
0#
#12501901875
0!
#12501902250
1#
#12501902875
0#
#12501903250
1#
#12501903875
0#
#12501904250
1#
#12501904875
0#
#12501905250
1#
#12501905875
0#
#12501906250
1#
#12501906875
0#
#12501907250
1#
#12501907875
0#
#12501908250
1#
#12501908875
0#
#12501909250
1#
#12501909750
1!
#12501909875
0#
#12501914625
1$
#12501914750
1"
#12502038875
0$
#12502041375
1#
#12502041875
0!
0#
#12502042375
1#
#12502042875
0#
#12502043375
1#
#12502043875
0#
#12502044375
1#
#12502044875
0#
#12502045375
1#
#12502045875
0#
#12502046375
1#
#12502046875
0#
#12502047375
1#
#12502047875
0#
#12502048375
1#
#12502048875
1!
0#
#12502049625
0!
#12502050125
1#
#12502050625
0#
#12502051125
1#
#12502051625
0#
#12502052125
1#
#12502052625
1!
0#
#12502053125
1#
#12502053625
0!
0#
#12502054125
1#
#12502054625
1!
0#
#12502055125
1#
#12502055625
0#
#12502056125
1#
#12502056625
0#
#12502057125
0"
1#
1%
#12502057625
0#
#12502064625
1"
1$
#12502079875
0"
0$
#12502082375
1#
#12502082875
0!
0#
#12502083375
1#
#12502083875
0#
#12502084375
1#
#12502084875
0#
#12502085375
1#
#12502085875
0#
#12502086375
1#
#12502086875
0#
#12502087375
1#
#12502087875
1!
0#
#12502088375
1#
#12502088875
0!
0#
#12502089375
1#
#12502089875
1!
0#
#12502090625
0!
#12502091125
1#
#12502091625
0#
#12502092125
1#
#12502092625
0#
#12502093125
1#
#12502093625
1!
0#
#12502094125
1#
#12502094625
0#
#12502095125
1#
#12502095625
0#
#12502096125
1#
#12502096625
0!
0#
#12502097125
1#
#12502097625
1!
0#
#12502098125
1#
#12502098625
0#
#12502103500
1"
1$
#17502764875
0"
0$
#17502767375
1#
#17502767875
0!
0#
#17502768375
1#
#17502768875
0#
#17502769375
1#
#17502769875
0#
#17502770375
1#
#17502770875
0#
#17502771375
1#
#17502771875
0#
#17502772375
1#
#17502772875
0#
#17502773375
1#
#17502773875
0#
#17502774375
1#
#17502774875
1!
0#
#17502776000
1#
#17502776500
0!
0#
#17502777000
1#
#17502777500
0#
#17502778000
1#
#17502778500
1!
0#
#17502779000
1#
#17502779500
0!
0#
#17502780000
1#
#17502780500
1!
0#
#17502781000
1#
#17502781500
0#
#17502782000
1#
#17502782500
0#
#17502783000
1#
#17502783500
0#
#17502788375
1$
#17502788500
1"
#17502803875
0$
#17502804000
0"
#17502806375
1#
#17502806875
0!
0#
#17502807375
1#
#17502807875
0#
#17502808375
1#
#17502808875
0#
#17502809375
1#
#17502809875
0#
#17502810375
1#
#17502810875
0#
#17502811375
1#
#17502811875
1!
0#
#17502812375
1#
#17502812875
0!
0#
#17502813375
1#
#17502813875
1!
0#
#17502814625
0!
#17502815125
1#
#17502815625
0#
#17502816125
1#
#17502816625
1!
0#
#17502817125
1#
#17502817625
0#
#17502818125
1#
#17502818625
0#
#17502819125
1#
#17502819625
0#
#17502820125
1#
#17502820625
0!
0#
#17502821125
1#
#17502821625
1!
0#
#17502822125
1#
#17502822625
0#
#17502827500
1"
1$
#17503149500
0%
#17503160375
0$
#17503162375
0!
#17503162875
1#
#17503163375
0"
0#
#17503163875
1#
#17503164375
0#
#17503164875
1#
#17503165375
0#
#17503165875
1#
#17503166375
0#
#17503166875
1#
#17503167375
0#
#17503167875
1#
#17503168375
0#
#17503168875
1#
#17503169375
1"
0#
#17503169875
1#
#17503170375
1!
0"
0#
#17503171000
0!
#17503171500
1#
#17503172000
0#
#17503172500
1#
#17503173000
0#
#17503173500
1#
#17503174000
0#
#17503174500
1#
#17503175000
0#
#17503175500
1#
#17503176000
0#
#17503176500
1#
#17503177000
0#
#17503177500
1#
#17503178000
0#
#17503178500
1#
#17503179000
1!
0#
#17503183875
1$
#17503184000
1"
#17503213250
0$
#17503215750
1#
#17503216250
0!
0#
#17503216750
1#
#17503217250
1!
0#
#17503217750
1#
#17503218250
0#
#17503218750
1#
#17503219250
0#
#17503219750
1#
#17503220250
0!
0#
#17503220750
1#
#17503221250
0#
#17503221750
1#
#17503222250
0#
#17503222750
1#
#17503223250
1!
0#
#17503224375
1#
#17503224875
0!
0#
#17503225375
1#
#17503225875
1!
0#
#17503226375
1#
#17503226875
0!
0#
#17503227375
1#
#17503227875
1!
0#
#17503228375
1#
#17503228875
0!
0#
#17503229375
1#
#17503229875
1!
0#
#17503230375
1#
#17503230875
0!
0#
#17503231375
1#
#17503231500
0"
1%
#17503231875
1!
0#
#17503238875
1$
#17503239000
1"
#17503358375
0%
#17503375250
0$
#17503377250
0!
#17503377750
1#
#17503378250
0#
#17503378375
0"
#17503378750
1#
#17503379250
0#
#17503379750
1#
#17503380250
0#
#17503380750
1#
#17503381250
0#
#17503381750
1#
#17503382250
0#
#17503382750
1#
#17503383250
0#
#17503383750
1#
#17503384250
0#
#17503384375
1"
#17503384750
1#
#17503385250
1!
0#
#17503385375
0"
#17503386000
0!
#17503386500
1#
#17503387000
0#
#17503387500
1#
#17503388000
0#
#17503388500
1#
#17503389000
0#
#17503389500
1#
#17503390000
0#
#17503390500
1#
#17503391000
0#
#17503391500
1#
#17503392000
0#
#17503392500
1#
#17503393000
0#
#17503393500
1#
#17503394000
1!
0#
#17503398875
1"
1$
#17503418500
0$
#17503421000
1#
#17503421500
0!
0#
#17503422000
1#
#17503422500
1!
0#
#17503423000
1#
#17503423500
0#
#17503424000
1#
#17503424500
0#
#17503425000
1#
#17503425500
0!
0#
#17503426000
1#
#17503426500
0#
#17503427000
1#
#17503427500
0#
#17503428000
1#
#17503428500
1!
0#
#17503429750
1#
#17503430250
0!
0#
#17503430750
1#
#17503431250
1!
0#
#17503431750
1#
#17503432250
0!
0#
#17503432750
1#
#17503433250
1!
0#
#17503433750
1#
#17503434250
0!
0#
#17503434750
1#
#17503435250
1!
0#
#17503435750
1#
#17503436250
0!
0#
#17503436750
0"
1#
1%
#17503437250
1!
0#
